hw_dplyr_p1p2
…
Worst Flight Numbers for each Destination

flights%>%
  select(dest,arr_delay,tailnum)%>%
  group_by(dest)%>%
  filter(arr_delay > 0)%>%
  mutate(total_arr_delay = sum(arr_delay, na.rm = TRUE),
         pro_arr_delay = arr_delay/total_arr_delay, na.rm = TRUE)

## # A tibble: 133,004 x 6
## # Groups:   dest [103]
##    dest  arr_delay tailnum total_arr_delay pro_arr_delay na.rm
##    <chr>     <dbl> <chr>             <dbl>         <dbl> <lgl>
##  1 IAH          11 N14228            99391     0.000111  TRUE 
##  2 IAH          20 N24211            99391     0.000201  TRUE 
##  3 MIA          33 N619AA           140424     0.000235  TRUE 
##  4 ORD          12 N39463           283046     0.0000424 TRUE 
##  5 FLL          19 N516JB           202605     0.0000938 TRUE 
##  6 ORD           8 N3ALAA           283046     0.0000283 TRUE 
##  7 LAX           7 N29129           203226     0.0000344 TRUE 
##  8 DFW          31 N3DUAA           110009     0.000282  TRUE 
##  9 ATL          12 N542MQ           300299     0.0000400 TRUE 
## 10 DTW          16 N730MQ           138258     0.000116  TRUE 
## #  with 132,994 more rows
…
BMI

# Calculate the BMI and add it to the starwars data frame
starwars%>%
  mutate(bmi = mass / (height/100)^2)%>%
# Sanity check: The median BMI should be in the 20-30 range
  mutate(Sanity_check = case_when(
    bmi>=20 & bmi<=30 ~ "checked"
  ))

## # A tibble: 87 x 16
##    name  height  mass hair_color skin_color eye_color birth_year sex   gender
##    <chr>  <int> <dbl> <chr>      <chr>      <chr>          <dbl> <chr> <chr> 
##  1 Luke    172    77 blond      fair       blue            19   male  mascu
##  2 C-3PO    167    75 <NA>       gold       yellow         112   none  mascu
##  3 R2-D2     96    32 <NA>       white, bl red             33   none  mascu
##  4 Dart    202   136 none       white      yellow          41.9 male  mascu
##  5 Leia    150    49 brown      light      brown           19   fema femin
##  6 Owen    178   120 brown, gr light      blue            52   male  mascu
##  7 Beru    165    75 brown      light      blue            47   fema femin
##  8 R5-D4     97    32 <NA>       white, red red             NA   none  mascu
##  9 Bigg    183    84 black      light      brown           24   male  mascu
## 10 Obi-    182    77 auburn, w fair       blue-gray       57   male  mascu
## #  with 77 more rows, and 7 more variables: homeworld <chr>, species <chr>,
## #   films <list>, vehicles <list>, starships <list>, bmi <dbl>,
## #   Sanity_check <chr>
…
Bill Ratio

penguins%>%
  mutate(fb_ratio=flipper_length_mm/bill_length_mm)

## # A tibble: 344 x 9
##    species island bill_length_mm bill_depth_mm flipper_length_ body_mass_g
##    <fct>   <fct>           <dbl>         <dbl>            <int>       <int>
##  1 Adelie  Torge           39.1          18.7              181        3750
##  2 Adelie  Torge           39.5          17.4              186        3800
##  3 Adelie  Torge           40.3          18                195        3250
##  4 Adelie  Torge           NA            NA                 NA          NA
##  5 Adelie  Torge           36.7          19.3              193        3450
##  6 Adelie  Torge           39.3          20.6              190        3650
##  7 Adelie  Torge           38.9          17.8              181        3625
##  8 Adelie  Torge           39.2          19.6              195        4675
##  9 Adelie  Torge           34.1          18.1              193        3475
## 10 Adelie  Torge           42            20.2              190        4250
## #  with 334 more rows, and 3 more variables: sex <fct>, year <int>,
## #   fb_ratio <dbl>
…
